<?xml version="1.0" encoding="utf-8"?>
<assemblies>
    <assembly name="SpaceGame Tests" time="101.648712" total="94" passed="94" failed="0" skipped="0" config-file="" test-framework="Unreal Engine 4" environment="" errors="0" run-date="0-00-00" run-time="00:00:00">
        <collection name="Engine" total="94" passed="94" failed="0" skipped="0" time="0.000000">
            <test name="Animation.Verify Fast Path.IntegralType" result="Pass" time="0.000000" type="System.Engine.Animation.Verify Fast Path" method="IntegralType"/>
            <test name="Animation.Verify Fast Path.MultiIntegralType" result="Pass" time="0.000000" type="System.Engine.Animation.Verify Fast Path" method="MultiIntegralType"/>
            <test name="Animation.Verify Fast Path.MultiPropertyToArray" result="Pass" time="0.000000" type="System.Engine.Animation.Verify Fast Path" method="MultiPropertyToArray"/>
            <test name="Animation.Verify Fast Path.MultiStruct" result="Pass" time="0.000000" type="System.Engine.Animation.Verify Fast Path" method="MultiStruct"/>
            <test name="Animation.Verify Fast Path.NegatedBool" result="Pass" time="0.000000" type="System.Engine.Animation.Verify Fast Path" method="NegatedBool"/>
            <test name="Animation.Verify Fast Path.Struct" result="Pass" time="0.000000" type="System.Engine.Animation.Verify Fast Path" method="Struct"/>
            <test name="Animation.Verify Fast Path.SubStructBreak" result="Pass" time="0.000000" type="System.Engine.Animation.Verify Fast Path" method="SubStructBreak"/>
            <test name="Animation.Verify Fast Path.SubStructSplit" result="Pass" time="0.000000" type="System.Engine.Animation.Verify Fast Path" method="SubStructSplit"/>
            <test name="Animation.Verify Not Fast Path.BlueprintFunctionCall" result="Pass" time="0.000000" type="System.Engine.Animation.Verify Not Fast Path" method="BlueprintFunctionCall"/>
            <test name="Animation.Verify Not Fast Path.BlueprintLogic" result="Pass" time="0.000000" type="System.Engine.Animation.Verify Not Fast Path" method="BlueprintLogic"/>
            <test name="Animation.Verify Not Fast Path.NativeFunctionCall" result="Pass" time="0.000000" type="System.Engine.Animation.Verify Not Fast Path" method="NativeFunctionCall"/>
            <test name="AI.Behavior Trees.Abort: during instant task abort (lower pri)" result="Pass" time="0.000000" type="System.Engine.AI.Behavior Trees" method="Abort: during instant task abort (lower pri)"/>
            <test name="AI.Behavior Trees.Abort: during instant task abort (self)" result="Pass" time="0.000000" type="System.Engine.AI.Behavior Trees" method="Abort: during instant task abort (self)"/>
            <test name="AI.Behavior Trees.Abort: during latent task abort (lower pri)" result="Pass" time="0.000000" type="System.Engine.AI.Behavior Trees" method="Abort: during latent task abort (lower pri)"/>
            <test name="AI.Behavior Trees.Abort: during latent task abort (self)" result="Pass" time="0.000000" type="System.Engine.AI.Behavior Trees" method="Abort: during latent task abort (self)"/>
            <test name="AI.Behavior Trees.Abort: lower priority" result="Pass" time="0.000000" type="System.Engine.AI.Behavior Trees" method="Abort: lower priority"/>
            <test name="AI.Behavior Trees.Abort: merge ranges 1" result="Pass" time="0.000000" type="System.Engine.AI.Behavior Trees" method="Abort: merge ranges 1"/>
            <test name="AI.Behavior Trees.Abort: merge ranges 2" result="Pass" time="0.000000" type="System.Engine.AI.Behavior Trees" method="Abort: merge ranges 2"/>
            <test name="AI.Behavior Trees.Abort: merge ranges 3" result="Pass" time="0.000000" type="System.Engine.AI.Behavior Trees" method="Abort: merge ranges 3"/>
            <test name="AI.Behavior Trees.Abort: multiple delayed requests" result="Pass" time="0.000000" type="System.Engine.AI.Behavior Trees" method="Abort: multiple delayed requests"/>
            <test name="AI.Behavior Trees.Abort: observer in inactive parallel" result="Pass" time="0.000000" type="System.Engine.AI.Behavior Trees" method="Abort: observer in inactive parallel"/>
            <test name="AI.Behavior Trees.Abort: parallel internal" result="Pass" time="0.000000" type="System.Engine.AI.Behavior Trees" method="Abort: parallel internal"/>
            <test name="AI.Behavior Trees.Abort: parallel out" result="Pass" time="0.000000" type="System.Engine.AI.Behavior Trees" method="Abort: parallel out"/>
            <test name="AI.Behavior Trees.Abort: parallel out &amp; back" result="Pass" time="0.000000" type="System.Engine.AI.Behavior Trees" method="Abort: parallel out &amp; back"/>
            <test name="AI.Behavior Trees.Abort: self failure" result="Pass" time="0.000000" type="System.Engine.AI.Behavior Trees" method="Abort: self failure"/>
            <test name="AI.Behavior Trees.Abort: self success" result="Pass" time="0.000000" type="System.Engine.AI.Behavior Trees" method="Abort: self success"/>
            <test name="AI.Behavior Trees.Abort: value change (fail)" result="Pass" time="0.000000" type="System.Engine.AI.Behavior Trees" method="Abort: value change (fail)"/>
            <test name="AI.Behavior Trees.Abort: value change (other failed)" result="Pass" time="0.000000" type="System.Engine.AI.Behavior Trees" method="Abort: value change (other failed)"/>
            <test name="AI.Behavior Trees.Abort: value change (pass)" result="Pass" time="0.000000" type="System.Engine.AI.Behavior Trees" method="Abort: value change (pass)"/>
            <test name="AI.Behavior Trees.Composite decorator" result="Pass" time="0.000000" type="System.Engine.AI.Behavior Trees" method="Composite decorator"/>
            <test name="AI.Behavior Trees.Composite node: parallel (abort)" result="Pass" time="0.000000" type="System.Engine.AI.Behavior Trees" method="Composite node: parallel (abort)"/>
            <test name="AI.Behavior Trees.Composite node: parallel (wait)" result="Pass" time="0.000000" type="System.Engine.AI.Behavior Trees" method="Composite node: parallel (wait)"/>
            <test name="AI.Behavior Trees.Composite node: selector" result="Pass" time="0.000000" type="System.Engine.AI.Behavior Trees" method="Composite node: selector"/>
            <test name="AI.Behavior Trees.Composite node: sequence" result="Pass" time="0.000000" type="System.Engine.AI.Behavior Trees" method="Composite node: sequence"/>
            <test name="AI.Behavior Trees.Other: low priority observer in looped branch" result="Pass" time="0.000000" type="System.Engine.AI.Behavior Trees" method="Other: low priority observer in looped branch"/>
            <test name="AI.Behavior Trees.Service: abort task" result="Pass" time="0.000000" type="System.Engine.AI.Behavior Trees" method="Service: abort task"/>
            <test name="AI.Behavior Trees.Service: instant task" result="Pass" time="0.000000" type="System.Engine.AI.Behavior Trees" method="Service: instant task"/>
            <test name="AI.Behavior Trees.Service: latent task" result="Pass" time="0.000000" type="System.Engine.AI.Behavior Trees" method="Service: latent task"/>
            <test name="AI.Behavior Trees.Subtree: abort out" result="Pass" time="0.000000" type="System.Engine.AI.Behavior Trees" method="Subtree: abort out"/>
            <test name="AI.Behavior Trees.Subtree: simple" result="Pass" time="0.000000" type="System.Engine.AI.Behavior Trees" method="Subtree: simple"/>
            <test name="AI.Gameplay Tasks.Claimed resources" result="Pass" time="0.000000" type="System.Engine.AI.Gameplay Tasks" method="Claimed resources"/>
            <test name="AI.Gameplay Tasks.Claimed resources vs Insta-finish tasks" result="Pass" time="0.000000" type="System.Engine.AI.Gameplay Tasks" method="Claimed resources vs Insta-finish tasks"/>
            <test name="AI.Gameplay Tasks.Component&apos;s basic behavior" result="Pass" time="0.000000" type="System.Engine.AI.Gameplay Tasks" method="Component&apos;s basic behavior"/>
            <test name="AI.Gameplay Tasks.External Cancel with Tick" result="Pass" time="0.000000" type="System.Engine.AI.Gameplay Tasks" method="External Cancel with Tick"/>
            <test name="AI.Gameplay Tasks.Handling multiple task owners" result="Pass" time="0.000000" type="System.Engine.AI.Gameplay Tasks" method="Handling multiple task owners"/>
            <test name="AI.Gameplay Tasks.Non-overlapping resources" result="Pass" time="0.000000" type="System.Engine.AI.Gameplay Tasks" method="Non-overlapping resources"/>
            <test name="AI.Gameplay Tasks.Overlapping resources" result="Pass" time="0.000000" type="System.Engine.AI.Gameplay Tasks" method="Overlapping resources"/>
            <test name="AI.Gameplay Tasks.Pausing tasks blocking other tasks" result="Pass" time="0.000000" type="System.Engine.AI.Gameplay Tasks" method="Pausing tasks blocking other tasks"/>
            <test name="AI.Gameplay Tasks.Priorities" result="Pass" time="0.000000" type="System.Engine.AI.Gameplay Tasks" method="Priorities"/>
            <test name="AI.Gameplay Tasks.Resource Set" result="Pass" time="0.000000" type="System.Engine.AI.Gameplay Tasks" method="Resource Set"/>
            <test name="AI.Gameplay Tasks.Self and Owner ending" result="Pass" time="0.000000" type="System.Engine.AI.Gameplay Tasks" method="Self and Owner ending"/>
            <test name="AI.Gameplay Tasks.Self End" result="Pass" time="0.000000" type="System.Engine.AI.Gameplay Tasks" method="Self End"/>
            <test name="AI.Gameplay Tasks.Simultanously ticking tasks" result="Pass" time="0.000000" type="System.Engine.AI.Gameplay Tasks" method="Simultanously ticking tasks"/>
            <test name="AI.Pawn Actions.Abort action after a newer action has been pushed" result="Pass" time="0.000000" type="System.Engine.AI.Pawn Actions" method="Abort action after a newer action has been pushed"/>
            <test name="AI.Pawn Actions.Action pushing Actions" result="Pass" time="0.000000" type="System.Engine.AI.Pawn Actions" method="Action pushing Actions"/>
            <test name="AI.Pawn Actions.Basic aborting mechanics" result="Pass" time="0.000000" type="System.Engine.AI.Pawn Actions" method="Basic aborting mechanics"/>
            <test name="AI.Pawn Actions.High priority action still running after pushing lower priority action" result="Pass" time="0.000000" type="System.Engine.AI.Pawn Actions" method="High priority action still running after pushing lower priority action"/>
            <test name="AI.Pawn Actions.Not pausing actions of different resources" result="Pass" time="0.000000" type="System.Engine.AI.Pawn Actions" method="Not pausing actions of different resources"/>
            <test name="AI.Pawn Actions.Pausing Action by younger Action of same priority" result="Pass" time="0.000000" type="System.Engine.AI.Pawn Actions" method="Pausing Action by younger Action of same priority"/>
            <test name="AI.Pawn Actions.Pausing actions of same resource" result="Pass" time="0.000000" type="System.Engine.AI.Pawn Actions" method="Pausing actions of same resource"/>
            <test name="AI.Pawn Actions.Push and Abort same frame" result="Pass" time="0.000000" type="System.Engine.AI.Pawn Actions" method="Push and Abort same frame"/>
            <test name="AI.Pawn Actions.Pushing different priority actions" result="Pass" time="0.000000" type="System.Engine.AI.Pawn Actions" method="Pushing different priority actions"/>
            <test name="AI.Pawn Actions.Pushing multiple actions of same priority" result="Pass" time="0.000000" type="System.Engine.AI.Pawn Actions" method="Pushing multiple actions of same priority"/>
            <test name="AI.Pawn Actions.Pushing same action twice" result="Pass" time="0.000000" type="System.Engine.AI.Pawn Actions" method="Pushing same action twice"/>
            <test name="AI.Pawn Actions.Pushing Single Action" result="Pass" time="0.000000" type="System.Engine.AI.Pawn Actions" method="Pushing Single Action"/>
            <test name="AI.Pawn Actions.Pusihng action that has already been pushed should fail" result="Pass" time="0.000000" type="System.Engine.AI.Pawn Actions" method="Pusihng action that has already been pushed should fail"/>
            <test name="AI.Pawn Actions.Respecting push order" result="Pass" time="0.000000" type="System.Engine.AI.Pawn Actions" method="Respecting push order"/>
            <test name="AI.Resource ID.Basic operations" result="Pass" time="0.000000" type="System.Engine.AI.Resource ID" method="Basic operations"/>
            <test name="AI.Resource ID.Resource locking" result="Pass" time="0.000000" type="System.Engine.AI.Resource ID" method="Resource locking"/>
            <test name="Attachment" result="Pass" time="0.000000" type="System.Engine" method="Attachment"/>
            <test name="FileSystem.JSON" result="Pass" time="0.000000" type="System.Engine.FileSystem" method="JSON"/>
            <test name="Int Serialization" result="Pass" time="0.000000" type="System.Engine" method="Int Serialization"/>
            <test name="Internationalization.Text Property Test" result="Pass" time="0.000000" type="System.Engine.Internationalization" method="Text Property Test"/>
            <test name="Networking.IPv4.IPv4Address" result="Pass" time="0.000000" type="System.Engine.Networking.IPv4" method="IPv4Address"/>
            <test name="Rendering.Reinit Resources" result="Pass" time="0.000000" type="System.Engine.Rendering" method="Reinit Resources"/>
            <test name="Sequencer.Blending.Basic" result="Pass" time="0.000000" type="System.Engine.Sequencer.Blending" method="Basic"/>
            <test name="Sequencer.Compiler.Basic" result="Pass" time="0.000000" type="System.Engine.Sequencer.Compiler" method="Basic"/>
            <test name="Sequencer.Compiler.Custom" result="Pass" time="0.000000" type="System.Engine.Sequencer.Compiler" method="Custom"/>
            <test name="Sequencer.Compiler.Empty Space" result="Pass" time="0.000000" type="System.Engine.Sequencer.Compiler" method="Empty Space"/>
            <test name="Sequencer.Compiler.Empty Space On The Fly" result="Pass" time="0.000000" type="System.Engine.Sequencer.Compiler" method="Empty Space On The Fly"/>
            <test name="Sequencer.Compiler.Ranges" result="Pass" time="0.000000" type="System.Engine.Sequencer.Compiler" method="Ranges"/>
            <test name="Sequencer.Compiler.Tracks" result="Pass" time="0.000000" type="System.Engine.Sequencer.Compiler" method="Tracks"/>
            <test name="Sequencer.Compiler.Tree Basic" result="Pass" time="0.000000" type="System.Engine.Sequencer.Compiler" method="Tree Basic"/>
            <test name="Sequencer.Compiler.Tree Iterator" result="Pass" time="0.000000" type="System.Engine.Sequencer.Compiler" method="Tree Iterator"/>
            <test name="Sequencer.Compiler.Tree Iterator Bounds" result="Pass" time="0.000000" type="System.Engine.Sequencer.Compiler" method="Tree Iterator Bounds"/>
            <test name="Sequencer.Core.Transforms" result="Pass" time="0.000000" type="System.Engine.Sequencer.Core" method="Transforms"/>
            <test name="Sequencer.Pre-Animated State.Entity" result="Pass" time="0.000000" type="System.Engine.Sequencer.Pre-Animated State" method="Entity"/>
            <test name="Sequencer.Pre-Animated State.Global" result="Pass" time="0.000000" type="System.Engine.Sequencer.Pre-Animated State" method="Global"/>
            <test name="Sequencer.Pre-Animated State.Keep Then Restore Entity" result="Pass" time="0.000000" type="System.Engine.Sequencer.Pre-Animated State" method="Keep Then Restore Entity"/>
            <test name="Sequencer.Pre-Animated State.Overlapping Entities" result="Pass" time="0.000000" type="System.Engine.Sequencer.Pre-Animated State" method="Overlapping Entities"/>
            <test name="TimerManager" result="Pass" time="0.000000" type="System.Engine" method="TimerManager"/>
            <test name="VisualLogger.Logging events" result="Pass" time="0.000000" type="System.Engine.VisualLogger" method="Logging events"/>
            <test name="VisualLogger.Logging segment shape" result="Pass" time="0.000000" type="System.Engine.VisualLogger" method="Logging segment shape"/>
            <test name="VisualLogger.Logging simple text" result="Pass" time="0.000000" type="System.Engine.VisualLogger" method="Logging simple text"/>
        </collection>
    </assembly>
</assemblies>
